<?xml version="1.0" encoding="UTF-8" standalone="no"?>
<svg
   xmlns="http://www.w3.org/2000/svg"
   width="60"
   height="60"
   viewBox="0 0 15.875001 15.874999"
   version="1.1"
   id="svg8">
  <g
     id="layer1">
    <path
       id="rect979"
       style="mix-blend-mode:normal;fill:#6b0021;fill-opacity:1;stroke:#000000;stroke-width:0.0999999;stroke-miterlimit:4;stroke-dasharray:0, 1.1;stroke-dashoffset:0.999999;stroke-opacity:1;paint-order:stroke markers fill"
       d="M 24.625 16 L 24.625 17.166016 L 30.5625 17.166016 L 30.5625 16 L 24.625 16 z M 24.625 17.166016 L 19.875 17.166016 L 19.875 18.333984 L 24.625 18.333984 L 24.625 17.166016 z M 19.875 18.333984 L 17.5 18.333984 L 17.5 19.5 L 19.875 19.5 L 19.875 18.333984 z M 17.5 19.5 L 16.3125 19.5 L 16.3125 20.666016 L 17.5 20.666016 L 17.5 19.5 z M 17.5 20.666016 L 17.5 21.833984 L 18.6875 21.833984 L 18.6875 23 L 22.25 23 L 22.25 21.833984 L 24.625 21.833984 L 24.625 20.666016 L 17.5 20.666016 z M 18.6875 23 L 16.3125 23 L 16.3125 24.166016 L 18.6875 24.166016 L 18.6875 23 z M 16.3125 24.166016 L 13.9375 24.166016 L 13.9375 25.333984 L 16.3125 25.333984 L 16.3125 24.166016 z M 13.9375 25.333984 L 12.75 25.333984 L 12.75 26.5 L 13.9375 26.5 L 13.9375 25.333984 z M 12.75 26.5 L 11.5625 26.5 L 11.5625 27.666016 L 12.75 27.666016 L 12.75 26.5 z M 12.75 27.666016 L 12.75 28.833984 L 15.125 28.833984 L 15.125 30 L 16.3125 30 L 16.3125 28.833984 L 18.6875 28.833984 L 18.6875 27.666016 L 22.25 27.666016 L 22.25 26.5 L 24.625 26.5 L 24.625 25.333984 L 21.0625 25.333984 L 21.0625 26.5 L 16.3125 26.5 L 16.3125 27.666016 L 12.75 27.666016 z M 15.125 30 L 13.9375 30 L 13.9375 31.166016 L 15.125 31.166016 L 15.125 30 z M 13.9375 31.166016 L 12.75 31.166016 L 12.75 32.333984 L 13.9375 32.333984 L 13.9375 31.166016 z M 13.9375 32.333984 L 13.9375 33.5 L 17.5 33.5 L 17.5 34.666016 L 18.6875 34.666016 L 18.6875 33.5 L 19.875 33.5 L 19.875 32.333984 L 22.25 32.333984 L 22.25 31.166016 L 24.625 31.166016 L 24.625 30 L 27 30 L 27 28.833984 L 23.4375 28.833984 L 23.4375 30 L 19.875 30 L 19.875 31.166016 L 16.3125 31.166016 L 16.3125 32.333984 L 13.9375 32.333984 z M 27 28.833984 L 29.375 28.833984 L 29.375 27.666016 L 27 27.666016 L 27 28.833984 z M 17.5 34.666016 L 16.3125 34.666016 L 16.3125 35.833984 L 13.9375 35.833984 L 13.9375 37 L 19.875 37 L 19.875 35.833984 L 17.5 35.833984 L 17.5 34.666016 z M 19.875 35.833984 L 22.25 35.833984 L 22.25 34.666016 L 19.875 34.666016 L 19.875 35.833984 z M 22.25 34.666016 L 24.625 34.666016 L 24.625 35.833984 L 28.1875 35.833984 L 28.1875 34.666016 L 27 34.666016 L 27 33.5 L 29.375 33.5 L 29.375 34.666016 L 31.75 34.666016 L 31.75 33.5 L 36.5 33.5 L 36.5 32.333984 L 34.125 32.333984 L 34.125 31.166016 L 29.375 31.166016 L 29.375 32.333984 L 25.8125 32.333984 L 25.8125 33.5 L 22.25 33.5 L 22.25 34.666016 z M 28.1875 35.833984 L 28.1875 37 L 29.375 37 L 29.375 35.833984 L 28.1875 35.833984 z M 29.375 37 L 29.375 38.166016 L 30.5625 38.166016 L 30.5625 37 L 29.375 37 z M 13.9375 33.5 L 12.75 33.5 L 12.75 32.333984 L 11.5625 32.333984 L 11.5625 34.666016 L 12.75 34.666016 L 13.9375 34.666016 L 13.9375 33.5 z M 36.5 16 L 36.5 17.166016 L 38.875 17.166016 L 38.875 16 L 36.5 16 z M 38.875 17.166016 L 38.875 18.333984 L 41.25 18.333984 L 41.25 17.166016 L 38.875 17.166016 z M 41.25 18.333984 L 41.25 19.5 L 42.4375 19.5 L 42.4375 18.333984 L 41.25 18.333984 z M 42.4375 19.5 L 42.4375 20.666016 L 43.625 20.666016 L 43.625 19.5 L 42.4375 19.5 z M 43.625 20.666016 L 43.625 21.833984 L 44.8125 21.833984 L 44.8125 20.666016 L 43.625 20.666016 z M 44.8125 21.833984 L 44.8125 24.166016 L 46 24.166016 L 46 21.833984 L 44.8125 21.833984 z M 35.3125 21.833984 L 35.3125 24.166016 L 36.5 24.166016 L 36.5 23 L 37.6875 23 L 37.6875 21.833984 L 36.5 21.833984 L 35.3125 21.833984 z M 38.875 23 L 38.875 24.166016 L 40.0625 24.166016 L 40.0625 23 L 38.875 23 z M 40.0625 24.166016 L 40.0625 25.333984 L 42.4375 25.333984 L 42.4375 24.166016 L 40.0625 24.166016 z M 42.4375 25.333984 L 42.4375 26.5 L 43.625 26.5 L 43.625 25.333984 L 42.4375 25.333984 z M 43.625 26.5 L 43.625 27.666016 L 44.8125 27.666016 L 44.8125 26.5 L 43.625 26.5 z M 42.4375 32.333984 L 42.4375 33.5 L 43.625 33.5 L 43.625 32.333984 L 42.4375 32.333984 z M 43.625 33.5 L 43.625 34.666016 L 44.8125 34.666016 L 44.8125 33.5 L 43.625 33.5 z M 11.5625 37 L 11.5625 38.166016 L 12.75 38.166016 L 12.75 37 L 11.5625 37 z "
       transform="scale(0.26458333)" />
    <path
       id="rect1080"
       style="mix-blend-mode:normal;fill:#ffffff;fill-opacity:1;stroke:#000000;stroke-width:1.00000001;stroke-miterlimit:4;stroke-dasharray:0, 11.00000013999999915;stroke-dashoffset:10.00000013;stroke-opacity:1;paint-order:stroke markers fill"
       d="M 35.3125 19.5 L 35.3125 20.666016 L 36.5 20.666016 L 36.5 19.5 L 35.3125 19.5 z M 36.5 24.166016 L 36.5 26.5 L 37.6875 26.5 L 37.6875 27.666016 L 38.875 27.666016 L 38.875 28.833984 L 41.25 28.833984 L 41.25 25.333984 L 38.875 25.333984 L 37.6875 25.333984 L 37.6875 24.166016 L 36.5 24.166016 z M 31.75 33.5 L 31.75 34.666016 L 34.125 34.666016 L 34.125 33.5 L 31.75 33.5 z M 37.6875 33.5 L 37.6875 34.666016 L 35.3125 34.666016 L 35.3125 35.833984 L 35.3125 37 L 35.3125 38.166016 L 36.5 38.166016 L 36.5 39.333984 L 38.875 39.333984 L 38.875 40.5 L 38.875 41.666016 L 41.25 41.666016 L 41.25 40.5 L 42.4375 40.5 L 42.4375 39.333984 L 43.625 39.333984 L 43.625 37 L 41.25 37 L 41.25 38.166016 L 40.0625 38.166016 L 40.0625 37 L 38.875 37 L 38.875 35.833984 L 42.4375 35.833984 L 42.4375 34.666016 L 41.25 34.666016 L 41.25 33.5 L 37.6875 33.5 z M 41.25 41.666016 L 41.25 42.833984 L 42.4375 42.833984 L 42.4375 41.666016 L 41.25 41.666016 z M 49.5625 33.5 L 49.5625 34.666016 L 47.1875 34.666016 L 47.1875 35.833984 L 48.375 35.833984 L 48.375 39.333984 L 49.5625 39.333984 L 49.5625 35.833984 L 50.75 35.833984 L 50.75 34.666016 L 51.9375 34.666016 L 51.9375 33.5 L 49.5625 33.5 z M 51.9375 34.666016 L 51.9375 37 L 53.125 37 L 53.125 39.333984 L 54.3125 39.333984 L 54.3125 37 L 55.5 37 L 55.5 35.833984 L 54.3125 35.833984 L 53.125 35.833984 L 53.125 34.666016 L 51.9375 34.666016 z M 55.5 37 L 55.5 39.333984 L 56.6875 39.333984 L 56.6875 37 L 55.5 37 z M 53.125 39.333984 L 51.9375 39.333984 L 51.9375 40.5 L 53.125 40.5 L 53.125 39.333984 z M 3.25 35.833984 L 3.25 37 L 4.4375 37 L 4.4375 35.833984 L 3.25 35.833984 z "
       transform="scale(0.26458333)"/>
    <path
       id="rect1128"
       style="mix-blend-mode:normal;fill:#212421;fill-opacity:1;stroke:#000000;stroke-width:0.0999999;stroke-miterlimit:4;stroke-dasharray:0, 1.1;stroke-dashoffset:0.999999;stroke-opacity:1;paint-order:stroke markers fill"
       d="M 41.25 26.5 L 41.25 27.666016 L 42.4375 27.666016 L 42.4375 26.5 L 41.25 26.5 z M 36.5 30 L 36.5 31.166016 L 37.6875 31.166016 L 37.6875 30 L 36.5 30 z M 47.1875 30 L 47.1875 31.166016 L 48.375 31.166016 L 48.375 30 L 47.1875 30 z M 12.75 37 L 12.75 38.166016 L 13.9375 38.166016 L 13.9375 37 L 12.75 37 z M 12.75 38.166016 L 10.375 38.166016 L 10.375 39.333984 L 12.75 39.333984 L 12.75 38.166016 z M 10.375 39.333984 L 8 39.333984 L 8 40.5 L 10.375 40.5 L 10.375 39.333984 z M 8 40.5 L 2.0625 40.5 L 2.0625 41.666016 L 8 41.666016 L 8 40.5 z M 2.0625 40.5 L 2.0625 39.333984 L 0.875 39.333984 L 0.875 40.5 L 2.0625 40.5 z "
       transform="scale(0.26458333)" />
    <path
       id="rect1144"
       style="mix-blend-mode:normal;fill:#6b6d94;fill-opacity:1;stroke:#000000;stroke-width:0.0999999;stroke-miterlimit:4;stroke-dasharray:0, 1.1;stroke-dashoffset:0.999999;stroke-opacity:1;paint-order:stroke markers fill"
       d="M 41.25 25.333984 L 41.25 26.5 L 42.4375 26.5 L 42.4375 25.333984 L 41.25 25.333984 z M 46 28.833984 L 46 30 L 48.375 30 L 48.375 28.833984 L 46 28.833984 z M 36.5 32.333984 L 36.5 33.5 L 37.6875 33.5 L 37.6875 32.333984 L 36.5 32.333984 z M 36.5 33.5 L 34.125 33.5 L 34.125 34.666016 L 36.5 34.666016 L 36.5 33.5 z M 34.125 34.666016 L 32.9375 34.666016 L 32.9375 35.833984 L 34.125 35.833984 L 34.125 34.666016 z M 32.9375 35.833984 L 31.75 35.833984 L 31.75 37 L 30.5625 37 L 30.5625 38.166016 L 31.75 38.166016 L 31.75 40.5 L 32.9375 40.5 L 32.9375 35.833984 z M 32.9375 40.5 L 32.9375 42.833984 L 34.125 42.833984 L 34.125 40.5 L 32.9375 40.5 z M 34.125 42.833984 L 34.125 44 L 36.5 44 L 36.5 42.833984 L 34.125 42.833984 z M 6.8125 33.5 L 6.8125 34.666016 L 8 34.666016 L 8 33.5 L 6.8125 33.5 z M 51.9375 33.5 L 51.9375 34.666016 L 53.125 34.666016 L 53.125 33.5 L 51.9375 33.5 z M 54.3125 34.666016 L 54.3125 35.833984 L 55.5 35.833984 L 55.5 34.666016 L 54.3125 34.666016 z M 55.5 35.833984 L 55.5 37 L 56.6875 37 L 56.6875 35.833984 L 55.5 35.833984 z M 56.6875 37 L 56.6875 39.333984 L 55.5 39.333984 L 55.5 38.166016 L 54.3125 38.166016 L 54.3125 41.666016 L 53.125 41.666016 L 53.125 42.833984 L 54.3125 42.833984 L 54.3125 44 L 56.6875 44 L 56.6875 42.833984 L 55.5 42.833984 L 55.5 41.666016 L 55.5 40.5 L 57.875 40.5 L 57.875 39.333984 L 57.875 37 L 56.6875 37 z M 53.125 42.833984 L 47.1875 42.833984 L 47.1875 44 L 53.125 44 L 53.125 42.833984 z M 47.1875 42.833984 L 47.1875 41.666016 L 46 41.666016 L 46 42.833984 L 47.1875 42.833984 z M 46 41.666016 L 46 40.5 L 49.5625 40.5 L 49.5625 39.333984 L 46 39.333984 L 46 37 L 43.625 37 L 43.625 39.333984 L 43.625 40.5 L 44.8125 40.5 L 44.8125 41.666016 L 46 41.666016 z M 43.625 40.5 L 42.4375 40.5 L 42.4375 41.666016 L 43.625 41.666016 L 43.625 40.5 z M 43.625 37 L 43.625 35.833984 L 40.0625 35.833984 L 40.0625 37 L 43.625 37 z M 49.5625 39.333984 L 50.75 39.333984 L 50.75 35.833984 L 49.5625 35.833984 L 49.5625 39.333984 z M 9.1875 37 L 9.1875 38.166016 L 11.5625 38.166016 L 11.5625 37 L 9.1875 37 z M 37.6875 41.666016 L 37.6875 42.833984 L 40.0625 42.833984 L 40.0625 41.666016 L 37.6875 41.666016 z M 40.0625 42.833984 L 40.0625 44 L 42.4375 44 L 42.4375 42.833984 L 40.0625 42.833984 z "
       transform="scale(0.26458333)" />
    <path
       id="rect1200"
       style="mix-blend-mode:normal;fill:#dedbff;fill-opacity:1;stroke:#000000;stroke-width:0.0999999;stroke-miterlimit:4;stroke-dasharray:0, 1.1;stroke-dashoffset:0.999999;stroke-opacity:1;paint-order:stroke markers fill"
       d="M 9.1875 34.666016 L 9.1875 35.833984 L 11.5625 35.833984 L 11.5625 34.666016 L 9.1875 34.666016 z M 9.1875 35.833984 L 8 35.833984 L 8 37 L 9.1875 37 L 9.1875 35.833984 z M 46 34.666016 L 46 35.833984 L 47.1875 35.833984 L 47.1875 34.666016 L 46 34.666016 z M 47.1875 35.833984 L 47.1875 38.166016 L 46 38.166016 L 46 39.333984 L 48.375 39.333984 L 48.375 38.166016 L 48.375 35.833984 L 47.1875 35.833984 z M 50.75 34.666016 L 50.75 35.833984 L 51.9375 35.833984 L 51.9375 34.666016 L 50.75 34.666016 z M 51.9375 37 L 51.9375 39.333984 L 53.125 39.333984 L 53.125 37 L 51.9375 37 z M 53.125 39.333984 L 53.125 40.5 L 54.3125 40.5 L 54.3125 39.333984 L 53.125 39.333984 z M 51.9375 39.333984 L 50.75 39.333984 L 50.75 40.5 L 51.9375 40.5 L 51.9375 39.333984 z M 55.5 41.666016 L 55.5 42.833984 L 56.6875 42.833984 L 56.6875 41.666016 L 55.5 41.666016 z "
       transform="scale(0.26458333)" />
    <path
       id="rect1228"
       style="mix-blend-mode:normal;fill:#b5b6de;fill-opacity:1;stroke:#000000;stroke-width:0.0999999;stroke-miterlimit:4;stroke-dasharray:0, 1.1;stroke-dashoffset:0.999999;stroke-opacity:1;paint-order:stroke markers fill"
       d="M 36.5 23 L 36.5 24.166016 L 37.6875 24.166016 L 37.6875 23 L 36.5 23 z M 37.6875 24.166016 L 37.6875 25.333984 L 40.0625 25.333984 L 40.0625 24.166016 L 37.6875 24.166016 z M 36.5 24.166016 L 35.3125 24.166016 L 35.3125 26.5 L 36.5 26.5 L 36.5 24.166016 z M 36.5 26.5 L 36.5 27.666016 L 37.6875 27.666016 L 37.6875 26.5 L 36.5 26.5 z M 42.4375 26.5 L 42.4375 27.666016 L 43.625 27.666016 L 43.625 26.5 L 42.4375 26.5 z M 44.8125 26.5 L 44.8125 27.666016 L 46 27.666016 L 46 26.5 L 44.8125 26.5 z M 37.6875 32.333984 L 37.6875 33.5 L 41.25 33.5 L 41.25 32.333984 L 37.6875 32.333984 z M 41.25 33.5 L 41.25 34.666016 L 42.4375 34.666016 L 42.4375 33.5 L 41.25 33.5 z M 37.6875 33.5 L 36.5 33.5 L 36.5 34.666016 L 37.6875 34.666016 L 37.6875 33.5 z M 8 33.5 L 8 34.666016 L 6.8125 34.666016 L 6.8125 35.833984 L 9.1875 35.833984 L 9.1875 34.666016 L 10.375 34.666016 L 10.375 33.5 L 8 33.5 z M 9.1875 35.833984 L 9.1875 37 L 11.5625 37 L 11.5625 35.833984 L 9.1875 35.833984 z M 9.1875 37 L 8 37 L 8 38.166016 L 9.1875 38.166016 L 9.1875 37 z M 46 33.5 L 46 34.666016 L 49.5625 34.666016 L 49.5625 33.5 L 46 33.5 z M 46 34.666016 L 44.8125 34.666016 L 44.8125 37 L 46 37 L 46 38.166016 L 47.1875 38.166016 L 47.1875 35.833984 L 46 35.833984 L 46 34.666016 z M 30.5625 34.666016 L 30.5625 35.833984 L 30.5625 37 L 31.75 37 L 31.75 35.833984 L 32.9375 35.833984 L 32.9375 34.666016 L 30.5625 34.666016 z M 32.9375 35.833984 L 32.9375 38.166016 L 32.9375 39.333984 L 32.9375 40.5 L 34.125 40.5 L 34.125 41.666016 L 34.125 42.833984 L 36.5 42.833984 L 36.5 44 L 38.875 44 L 38.875 42.833984 L 37.6875 42.833984 L 37.6875 41.666016 L 38.875 41.666016 L 38.875 40.5 L 38.875 39.333984 L 36.5 39.333984 L 36.5 38.166016 L 35.3125 38.166016 L 35.3125 35.833984 L 35.3125 34.666016 L 34.125 34.666016 L 34.125 35.833984 L 32.9375 35.833984 z M 53.125 34.666016 L 53.125 35.833984 L 54.3125 35.833984 L 54.3125 34.666016 L 53.125 34.666016 z M 38.875 35.833984 L 38.875 37 L 40.0625 37 L 40.0625 35.833984 L 38.875 35.833984 z M 40.0625 37 L 40.0625 38.166016 L 41.25 38.166016 L 41.25 37 L 40.0625 37 z M 50.75 35.833984 L 50.75 39.333984 L 51.9375 39.333984 L 51.9375 35.833984 L 50.75 35.833984 z M 50.75 39.333984 L 49.5625 39.333984 L 49.5625 40.5 L 46 40.5 L 46 41.666016 L 47.1875 41.666016 L 47.1875 42.833984 L 53.125 42.833984 L 53.125 41.666016 L 54.3125 41.666016 L 54.3125 40.5 L 50.75 40.5 L 50.75 39.333984 z M 54.3125 37 L 54.3125 38.166016 L 55.5 38.166016 L 55.5 37 L 54.3125 37 z M 42.4375 39.333984 L 42.4375 40.5 L 43.625 40.5 L 43.625 39.333984 L 42.4375 39.333984 z M 42.4375 40.5 L 41.25 40.5 L 41.25 41.666016 L 42.4375 41.666016 L 42.4375 40.5 z M 42.4375 41.666016 L 42.4375 42.833984 L 43.625 42.833984 L 43.625 41.666016 L 42.4375 41.666016 z M 41.25 41.666016 L 40.0625 41.666016 L 40.0625 42.833984 L 41.25 42.833984 L 41.25 41.666016 z "
       transform="scale(0.26458333)" />
    <path
       id="rect1309"
       style="mix-blend-mode:normal;fill:#940000;fill-opacity:1;stroke:#000000;stroke-width:0.0999999;stroke-miterlimit:4;stroke-dasharray:0, 1.1;stroke-dashoffset:0.999999;stroke-opacity:1;paint-order:stroke markers fill"
       d="M 3.25 33.5 L 3.25 34.666016 L 5.625 34.666016 L 5.625 35.833984 L 6.8125 35.833984 L 6.8125 34.666016 L 6.8125 33.5 L 3.25 33.5 z M 6.8125 35.833984 L 6.8125 38.166016 L 5.625 38.166016 L 5.625 39.333984 L 2.0625 39.333984 L 2.0625 40.5 L 8 40.5 L 8 39.333984 L 8 38.166016 L 8 35.833984 L 6.8125 35.833984 z M 2.0625 39.333984 L 2.0625 35.833984 L 0.875 35.833984 L 0.875 39.333984 L 2.0625 39.333984 z M 2.0625 35.833984 L 3.25 35.833984 L 3.25 34.666016 L 2.0625 34.666016 L 2.0625 35.833984 z "
       transform="scale(0.26458333)" />
    <path
       id="rect1323"
       style="mix-blend-mode:normal;fill:#ffb694;fill-opacity:1;stroke:#000000;stroke-width:0.0999999;stroke-miterlimit:4;stroke-dasharray:0, 1.1;stroke-dashoffset:0.999999;stroke-opacity:1;paint-order:stroke markers fill"
       d="M 34.125 20.666016 L 34.125 21.833984 L 35.3125 21.833984 L 35.3125 20.666016 L 34.125 20.666016 z M 41.25 27.666016 L 41.25 28.833984 L 32.9375 28.833984 L 32.9375 30 L 34.125 30 L 34.125 31.166016 L 36.5 31.166016 L 36.5 30 L 37.6875 30 L 37.6875 31.166016 L 40.0625 31.166016 L 40.0625 32.333984 L 41.25 32.333984 L 41.25 31.166016 L 44.8125 31.166016 L 44.8125 30 L 46 30 L 46 28.833984 L 44.8125 28.833984 L 44.8125 27.666016 L 41.25 27.666016 z M 37.6875 31.166016 L 36.5 31.166016 L 36.5 32.333984 L 37.6875 32.333984 L 37.6875 31.166016 z "
       transform="scale(0.26458333)" />
    <path
       id="rect1337"
       style="mix-blend-mode:normal;fill:#b56d4a;fill-opacity:1;stroke:#000000;stroke-width:0.0999999;stroke-miterlimit:4;stroke-dasharray:0, 1.1;stroke-dashoffset:0.999999;stroke-opacity:1;paint-order:stroke markers fill"
       d="M 44.8125 27.666016 L 44.8125 28.833984 L 47.1875 28.833984 L 47.1875 27.666016 L 44.8125 27.666016 z M 32.9375 30 L 32.9375 31.166016 L 34.125 31.166016 L 34.125 30 L 32.9375 30 z M 34.125 31.166016 L 34.125 32.333984 L 36.5 32.333984 L 36.5 31.166016 L 34.125 31.166016 z M 44.8125 30 L 44.8125 31.166016 L 41.25 31.166016 L 41.25 32.333984 L 41.25 33.5 L 42.4375 33.5 L 42.4375 32.333984 L 46 32.333984 L 46 31.166016 L 47.1875 31.166016 L 47.1875 30 L 44.8125 30 z M 11.5625 31.166016 L 11.5625 32.333984 L 12.75 32.333984 L 12.75 31.166016 L 11.5625 31.166016 z M 37.6875 31.166016 L 37.6875 32.333984 L 40.0625 32.333984 L 40.0625 31.166016 L 37.6875 31.166016 z M 8 32.333984 L 8 33.5 L 10.375 33.5 L 10.375 32.333984 L 8 32.333984 z M 9.1875 38.166016 L 9.1875 39.333984 L 10.375 39.333984 L 10.375 38.166016 L 9.1875 38.166016 z "
       transform="scale(0.26458333)" />
    <path
       id="rect1357"
       style="mix-blend-mode:normal;fill:#ffb600;fill-opacity:1;stroke:#000000;stroke-width:0.0999999;stroke-miterlimit:4;stroke-dasharray:0, 1.1;stroke-dashoffset:0.999999;stroke-opacity:1;paint-order:stroke markers fill"
       d="M 9.1875 31.166016 L 9.1875 32.333984 L 11.5625 32.333984 L 11.5625 31.166016 L 9.1875 31.166016 z M 5.625 32.333984 L 5.625 33.5 L 8 33.5 L 8 32.333984 L 5.625 32.333984 z M 8 38.166016 L 8 39.333984 L 9.1875 39.333984 L 9.1875 38.166016 L 8 38.166016 z "
       transform="scale(0.26458333)" />
    <path
       id="rect1363"
       style="mix-blend-mode:normal;fill:#009200;fill-opacity:1;stroke:#000000;stroke-width:0.0999999;stroke-miterlimit:4;stroke-dasharray:0, 1.1;stroke-dashoffset:0.999999;stroke-opacity:1;paint-order:stroke markers fill"
       d="M 10.375 32.333984 L 10.375 34.666016 L 11.5625 34.666016 L 11.5625 32.333984 L 10.375 32.333984 z M 11.5625 34.666016 L 11.5625 37 L 13.9375 37 L 13.9375 34.666016 L 11.5625 34.666016 z "
       transform="scale(0.26458333)" />
    <path
       id="rect1367"
       style="mix-blend-mode:normal;fill:#ff496b;fill-opacity:1;stroke:#000000;stroke-width:0.0999999;stroke-miterlimit:4;stroke-dasharray:0, 1.1;stroke-dashoffset:0.999999;stroke-opacity:1;paint-order:stroke markers fill"
       d="M 32.9375 18.333984 L 32.9375 19.5 L 34.125 19.5 L 34.125 20.666016 L 35.3125 20.666016 L 35.3125 19.5 L 36.5 19.5 L 36.5 20.666016 L 35.3125 20.666016 L 35.3125 21.833984 L 37.6875 21.833984 L 37.6875 20.666016 L 38.875 20.666016 L 38.875 21.833984 L 37.6875 21.833984 L 37.6875 23 L 40.0625 23 L 40.0625 21.833984 L 41.25 21.833984 L 41.25 20.666016 L 40.0625 20.666016 L 40.0625 19.5 L 37.6875 19.5 L 37.6875 18.333984 L 32.9375 18.333984 z M 40.0625 23 L 40.0625 24.166016 L 41.25 24.166016 L 41.25 23 L 40.0625 23 z M 34.125 20.666016 L 32.9375 20.666016 L 32.9375 21.833984 L 34.125 21.833984 L 34.125 20.666016 z M 24.625 21.833984 L 24.625 23 L 27 23 L 27 21.833984 L 24.625 21.833984 z M 19.875 23 L 19.875 24.166016 L 23.4375 24.166016 L 23.4375 23 L 19.875 23 z M 19.875 24.166016 L 17.5 24.166016 L 17.5 25.333984 L 19.875 25.333984 L 19.875 24.166016 z M 17.5 25.333984 L 15.125 25.333984 L 15.125 26.5 L 17.5 26.5 L 17.5 25.333984 z M 34.125 24.166016 L 34.125 26.5 L 35.3125 26.5 L 35.3125 24.166016 L 34.125 24.166016 z M 35.3125 26.5 L 35.3125 27.666016 L 36.5 27.666016 L 36.5 26.5 L 35.3125 26.5 z M 43.625 25.333984 L 43.625 26.5 L 44.8125 26.5 L 44.8125 25.333984 L 43.625 25.333984 z M 23.4375 26.5 L 23.4375 27.666016 L 21.0625 27.666016 L 21.0625 28.833984 L 24.625 28.833984 L 24.625 27.666016 L 27 27.666016 L 27 26.5 L 23.4375 26.5 z M 21.0625 28.833984 L 17.5 28.833984 L 17.5 30 L 21.0625 30 L 21.0625 28.833984 z M 17.5 30 L 15.125 30 L 15.125 31.166016 L 17.5 31.166016 L 17.5 30 z M 37.6875 27.666016 L 37.6875 28.833984 L 38.875 28.833984 L 38.875 27.666016 L 37.6875 27.666016 z M 29.375 28.833984 L 29.375 30 L 31.75 30 L 31.75 28.833984 L 29.375 28.833984 z M 29.375 30 L 27 30 L 27 31.166016 L 29.375 31.166016 L 29.375 30 z M 27 31.166016 L 23.4375 31.166016 L 23.4375 32.333984 L 27 32.333984 L 27 31.166016 z M 23.4375 32.333984 L 21.0625 32.333984 L 21.0625 33.5 L 23.4375 33.5 L 23.4375 32.333984 z M 21.0625 33.5 L 19.875 33.5 L 19.875 34.666016 L 21.0625 34.666016 L 21.0625 33.5 z M 13.9375 34.666016 L 13.9375 35.833984 L 16.3125 35.833984 L 16.3125 34.666016 L 13.9375 34.666016 z "
       transform="scale(0.26458333)" />
    <path
       id="rect1419"
       style="mix-blend-mode:normal;fill:#ff0000;fill-opacity:1;stroke:#000000;stroke-width:0.0999999;stroke-miterlimit:4;stroke-dasharray:0, 1.1;stroke-dashoffset:0.999999;stroke-opacity:1;paint-order:stroke markers fill"
       d="M 3.25 34.666016 L 3.25 35.833984 L 4.4375 35.833984 L 4.4375 37 L 3.25 37 L 3.25 35.833984 L 2.0625 35.833984 L 2.0625 39.333984 L 3.25 39.333984 L 5.625 39.333984 L 5.625 38.166016 L 6.8125 38.166016 L 6.8125 37 L 6.8125 35.833984 L 5.625 35.833984 L 5.625 34.666016 L 3.25 34.666016 z "
       transform="scale(0.26458333)" />
    <path
       id="rect1433"
       style="mix-blend-mode:normal;fill:#de0021;fill-opacity:1;stroke:#000000;stroke-width:0.0999999;stroke-miterlimit:4;stroke-dasharray:0, 1.1;stroke-dashoffset:0.999999;stroke-opacity:1;paint-order:stroke markers fill"
       d="M 30.5625 16 L 30.5625 17.166016 L 24.625 17.166016 L 24.625 18.333984 L 19.875 18.333984 L 19.875 19.5 L 17.5 19.5 L 17.5 20.666016 L 24.625 20.666016 L 24.625 21.833984 L 27 21.833984 L 27 23 L 24.625 23 L 24.625 21.833984 L 22.25 21.833984 L 22.25 23 L 23.4375 23 L 23.4375 24.166016 L 19.875 24.166016 L 19.875 25.333984 L 17.5 25.333984 L 17.5 26.5 L 21.0625 26.5 L 21.0625 25.333984 L 24.625 25.333984 L 24.625 26.5 L 27 26.5 L 27 27.666016 L 29.375 27.666016 L 29.375 28.833984 L 31.75 28.833984 L 31.75 30 L 29.375 30 L 29.375 31.166016 L 32.9375 31.166016 L 32.9375 30 L 32.9375 28.833984 L 37.6875 28.833984 L 37.6875 27.666016 L 35.3125 27.666016 L 35.3125 26.5 L 34.125 26.5 L 34.125 25.333984 L 34.125 24.166016 L 35.3125 24.166016 L 35.3125 23 L 35.3125 21.833984 L 32.9375 21.833984 L 32.9375 20.666016 L 34.125 20.666016 L 34.125 19.5 L 32.9375 19.5 L 32.9375 18.333984 L 37.6875 18.333984 L 37.6875 19.5 L 40.0625 19.5 L 40.0625 20.666016 L 41.25 20.666016 L 41.25 21.833984 L 40.0625 21.833984 L 40.0625 23 L 41.25 23 L 41.25 24.166016 L 42.4375 24.166016 L 42.4375 25.333984 L 44.8125 25.333984 L 44.8125 26.5 L 46 26.5 L 46 25.333984 L 46 24.166016 L 44.8125 24.166016 L 44.8125 23 L 44.8125 21.833984 L 43.625 21.833984 L 43.625 20.666016 L 42.4375 20.666016 L 42.4375 19.5 L 41.25 19.5 L 41.25 18.333984 L 38.875 18.333984 L 38.875 17.166016 L 36.5 17.166016 L 36.5 16 L 30.5625 16 z M 29.375 31.166016 L 27 31.166016 L 27 32.333984 L 29.375 32.333984 L 29.375 31.166016 z M 27 31.166016 L 27 30 L 24.625 30 L 24.625 31.166016 L 27 31.166016 z M 27 30 L 29.375 30 L 29.375 28.833984 L 27 28.833984 L 27 30 z M 27 28.833984 L 27 27.666016 L 24.625 27.666016 L 24.625 28.833984 L 27 28.833984 z M 17.5 25.333984 L 17.5 24.166016 L 16.3125 24.166016 L 16.3125 25.333984 L 17.5 25.333984 z M 19.875 24.166016 L 19.875 23 L 18.6875 23 L 18.6875 24.166016 L 19.875 24.166016 z M 37.6875 20.666016 L 37.6875 21.833984 L 38.875 21.833984 L 38.875 20.666016 L 37.6875 20.666016 z M 37.6875 23 L 37.6875 24.166016 L 38.875 24.166016 L 38.875 23 L 37.6875 23 z M 13.9375 25.333984 L 13.9375 26.5 L 12.75 26.5 L 12.75 27.666016 L 16.3125 27.666016 L 16.3125 26.5 L 15.125 26.5 L 15.125 25.333984 L 13.9375 25.333984 z M 22.25 26.5 L 22.25 27.666016 L 23.4375 27.666016 L 23.4375 26.5 L 22.25 26.5 z M 18.6875 27.666016 L 18.6875 28.833984 L 21.0625 28.833984 L 21.0625 27.666016 L 18.6875 27.666016 z M 21.0625 28.833984 L 21.0625 30 L 23.4375 30 L 23.4375 28.833984 L 21.0625 28.833984 z M 16.3125 28.833984 L 16.3125 30 L 17.5 30 L 17.5 28.833984 L 16.3125 28.833984 z M 17.5 30 L 17.5 31.166016 L 19.875 31.166016 L 19.875 30 L 17.5 30 z M 13.9375 31.166016 L 13.9375 32.333984 L 16.3125 32.333984 L 16.3125 31.166016 L 13.9375 31.166016 z M 13.9375 32.333984 L 12.75 32.333984 L 12.75 33.5 L 13.9375 33.5 L 13.9375 32.333984 z M 13.9375 33.5 L 13.9375 34.666016 L 17.5 34.666016 L 17.5 33.5 L 13.9375 33.5 z M 17.5 34.666016 L 17.5 35.833984 L 19.875 35.833984 L 19.875 34.666016 L 19.875 33.5 L 18.6875 33.5 L 18.6875 34.666016 L 17.5 34.666016 z M 19.875 33.5 L 21.0625 33.5 L 21.0625 32.333984 L 19.875 32.333984 L 19.875 33.5 z M 21.0625 33.5 L 21.0625 34.666016 L 22.25 34.666016 L 22.25 33.5 L 21.0625 33.5 z M 22.25 31.166016 L 22.25 32.333984 L 23.4375 32.333984 L 23.4375 31.166016 L 22.25 31.166016 z M 23.4375 32.333984 L 23.4375 33.5 L 25.8125 33.5 L 25.8125 32.333984 L 23.4375 32.333984 z M 27 33.5 L 27 34.666016 L 28.1875 34.666016 L 28.1875 35.833984 L 29.375 35.833984 L 29.375 37 L 30.5625 37 L 30.5625 35.833984 L 30.5625 34.666016 L 29.375 34.666016 L 29.375 33.5 L 27 33.5 z M 42.4375 33.5 L 42.4375 35.833984 L 43.625 35.833984 L 43.625 37 L 44.8125 37 L 44.8125 34.666016 L 43.625 34.666016 L 43.625 33.5 L 42.4375 33.5 z "
       transform="scale(0.26458333)" />
  </g>
</svg>
