<?xml version="1.0" encoding="UTF-8" standalone="no"?>
<svg
   xmlns="http://www.w3.org/2000/svg"
   xmlns:xlink="http://www.w3.org/1999/xlink"
   width="60"
   height="60"
   viewBox="0 0 12.7 12.7"
   version="1.1"
   id="svg5">
  <defs
     id="defs2">
    <linearGradient
       id="linearGradient21953">
      <stop
         style="stop-color:#000000;stop-opacity:1;"
         offset="0"
         id="stop21949" />
      <stop
         style="stop-color:#202020;stop-opacity:1"
         offset="1"
         id="stop21951" />
    </linearGradient>
    <linearGradient
       id="linearGradient21947">
      <stop
         style="stop-color:#f0f0f0;stop-opacity:1"
         offset="0"
         id="stop21943" />
      <stop
         style="stop-color:#202020;stop-opacity:1"
         offset="1"
         id="stop21945" />
    </linearGradient>
    <radialGradient
       xlink:href="#linearGradient21947"
       id="radialGradient21029"
       cx="5.8962407"
       cy="4.8394499"
       fx="5.8962407"
       fy="4.8394499"
       r="0.28504065"
       gradientTransform="matrix(3.1651826,-0.77983627,0.82330279,3.341604,-17.188359,-6.9090655)"
       gradientUnits="userSpaceOnUse" />
    <radialGradient
       xlink:href="#linearGradient21947"
       id="radialGradient21029-6"
       cx="5.8773866"
       cy="4.7448454"
       fx="5.8773866"
       fy="4.7448454"
       r="0.28504065"
       gradientTransform="matrix(0.0850049,3.5469698,-4.2487011,0.10182233,27.657988,-14.792604)"
       gradientUnits="userSpaceOnUse" />
    <radialGradient
       xlink:href="#linearGradient21953"
       id="radialGradient22801"
       cx="6.5288939"
       cy="5.8324552"
       fx="6.5288939"
       fy="5.8324552"
       r="0.70194787"
       gradientTransform="matrix(2.3980189,0.03816503,-0.03804458,2.3904516,-8.6549353,-7.4825376)"
       gradientUnits="userSpaceOnUse" />
    <radialGradient
       xlink:href="#linearGradient21953"
       id="radialGradient22809"
       cx="5.8603067"
       cy="5.3925848"
       fx="5.8603067"
       fy="5.3925848"
       r="0.80721647"
       gradientTransform="matrix(1.9510817,-0.65434153,0.61418967,1.8313592,-9.1162874,-0.30184014)"
       gradientUnits="userSpaceOnUse" />
    <radialGradient
       xlink:href="#linearGradient21953"
       id="radialGradient22899"
       cx="5.6112218"
       cy="5.9425459"
       fx="5.6112218"
       fy="5.9425459"
       r="0.18619083"
       gradientTransform="matrix(1.8630058,0,0,1.7632732,-5.3837865,-3.5470602)"
       gradientUnits="userSpaceOnUse" />
    <radialGradient
       xlink:href="#linearGradient21953"
       id="radialGradient22945"
       cx="5.9961524"
       cy="6.2837377"
       fx="5.9961524"
       fy="6.2837377"
       r="0.17676847"
       gradientTransform="matrix(1.8630058,0,0,2.1433433,-5.3837865,-5.9012928)"
       gradientUnits="userSpaceOnUse" />
    <radialGradient
       xlink:href="#linearGradient21947"
       id="radialGradient24856"
       cx="6.5579314"
       cy="5.1608057"
       fx="6.5579314"
       fy="5.1608057"
       r="2.5428903"
       gradientTransform="matrix(3.7811899,-0.57076936,0.57371589,3.8007099,-21.107489,-10.153049)"
       gradientUnits="userSpaceOnUse" />
    <radialGradient
       xlink:href="#linearGradient21953"
       id="radialGradient1227"
       cx="6.3500009"
       cy="6.3591709"
       fx="6.3500009"
       fy="6.3591709"
       r="5.1593757"
       gradientTransform="matrix(1.2370804,0.02047471,-0.02031921,1.2276851,-1.376248,-1.5779032)"
       gradientUnits="userSpaceOnUse" />
  </defs>
  <g
     id="layer1"
     style="display:inline">
    <path
       style="color:#000000;fill:url(#radialGradient24856);fill-opacity:1;stroke:none;stroke-width:0.0985842;stroke-linejoin:round;stroke-miterlimit:4;stroke-dasharray:none;stroke-dashoffset:10;stroke-opacity:1;paint-order:stroke markers fill"
       d="m 9.3282593,2.5871477 c 2.0500797,1.999277 2.2584847,6.1920488 1.1817927,7.5652083 -0.294829,0.376011 -2.9835754,0.89399 -3.86829,0.200995 C 6.3875032,10.154192 6.5874838,11.145712 6.2867479,11.116377 5.6562558,11.054875 5.2346351,10.859514 5.0097808,10.581339 4.8856505,10.427775 5.1582775,9.982777 5.0037743,9.8850226 4.8716123,9.8014027 4.4832435,10.183119 4.3557018,10.147473 3.8490191,10.005864 3.5478194,9.7239017 3.4837612,9.5787895 3.4173615,9.428373 3.7467682,9.0222603 3.5393078,8.8587351 3.3477948,8.7077798 3.0455055,9.1871416 2.7763713,9.0057196 2.4042531,8.7548768 2.2531221,8.5058873 2.1335679,8.2010761 2.0358005,7.9518113 2.8961995,7.5443824 2.6896296,7.3538986 1.6198254,6.3674021 1.4566095,4.010502 1.9198641,2.9808195 2.5166634,1.6543059 7.5614812,0.86415086 9.3282593,2.5871477 Z"
       id="path23999" />
    <path
       id="path17682"
       style="fill:url(#radialGradient22801);fill-opacity:1;stroke-width:0.0985842;stroke-linejoin:round;stroke-dashoffset:10;paint-order:stroke markers fill"
       d="M 9.3804572,6.7060848 C 9.3913493,7.5367378 9.1002096,8.3506509 8.1523727,8.3644074 7.4169414,8.3750809 6.7345613,7.5035038 6.766353,6.6243939 6.7930437,5.8863387 7.5530721,5.277015 8.1741573,5.2819424 c 0.6864571,0.00544 1.1985506,0.8331661 1.2062999,1.4241424 z" />
    <path
       id="path18946-3"
       style="display:inline;fill:url(#radialGradient21029-6);fill-opacity:1;stroke-width:0.0985842;stroke-linejoin:round;stroke-dashoffset:10;paint-order:stroke markers fill"
       d="M 7.157672,7.121986 C 6.7825134,7.1224351 6.7536346,6.9138167 6.7673834,6.5779978 6.7798068,6.2744397 6.9397711,5.9478729 7.2606016,6.0160994 7.4351858,6.053226 7.7764299,6.3396106 7.6691409,6.7417742 7.6016883,6.9946075 7.3310819,7.1217785 7.157672,7.121986 Z" />
    <path
       id="path14980"
       style="fill:url(#radialGradient22809);fill-opacity:1;stroke:none;stroke-width:0.0985842;stroke-linejoin:round;stroke-dashoffset:10;stroke-opacity:1;paint-order:stroke markers fill"
       d="m 6.8013606,4.6734801 c 0,0.5572256 -0.6034145,1.0671405 -1.3209858,1.0677581 C 4.6324164,5.7419679 3.7687934,5.2308312 3.7942107,4.7559449 3.8278223,4.1279574 4.8309822,3.3937085 5.6135624,3.3955156 c 0.8755899,0.00203 1.1877982,0.720739 1.1877982,1.2779645 z" />
    <path
       id="path18429"
       style="fill:url(#radialGradient22899);fill-opacity:1;stroke-width:0.0985842;stroke-linejoin:round;stroke-dashoffset:10;paint-order:stroke markers fill"
       d="M 5.2653384,7.1795694 C 5.1215423,7.2935259 4.8993089,7.2876424 4.790024,7.149741 4.6807381,7.0118394 4.7079901,6.7804482 4.8517844,6.6664932 4.9955787,6.5525388 5.2516388,6.6011014 5.3609238,6.739004 c 0.1092859,0.1379015 0.04821,0.32661 -0.095585,0.4405654 z" />
    <path
       id="path18429-3"
       style="display:inline;fill:url(#radialGradient22945);fill-opacity:1;stroke-width:0.103356;stroke-linejoin:round;stroke-dashoffset:10;paint-order:stroke markers fill"
       d="M 5.5416268,7.3272766 C 5.4251446,7.4734311 5.4275797,7.7173274 5.5641208,7.8506352 5.7006641,7.9839463 5.9330588,7.9770193 6.0495401,7.8308683 6.1660211,7.6847158 6.1213263,7.3995568 5.9847827,7.2662495 5.8482401,7.1329394 5.6581076,7.1811244 5.5416268,7.3272766 Z" />
    <path
       id="path18946"
       style="fill:url(#radialGradient21029);fill-opacity:1;stroke-width:0.0985842;stroke-linejoin:round;stroke-dashoffset:10;paint-order:stroke markers fill"
       d="M 6.1295526,5.2729191 C 6.1970252,5.5476076 6.1277327,5.6696635 5.6506307,5.7246677 5.2742401,5.7680603 5.0901792,5.7152948 5.089357,5.3872862 5.0889095,5.2087973 5.2851493,4.8699114 5.6394081,4.8699114 c 0.2616761,0 0.4487791,0.234604 0.4901445,0.4030077 z" />
    <path
       style="color:#000000;fill:url(#radialGradient1227);fill-opacity:1;stroke:none;stroke-width:0.21166667;stroke-linejoin:round;stroke-miterlimit:4;stroke-dasharray:none;stroke-dashoffset:10;stroke-opacity:0.5;paint-order:stroke markers fill"
       d="M 9.5172447,2.3919225 C 7.7768123,0.79232826 2.6691749,1.0941137 1.6450647,2.5929003 0.47919516,4.2991512 1.8609823,6.8015322 2.4053889,7.4389641 2.6277217,7.6992878 1.8026175,7.8111608 1.908105,8.248697 c 0.069416,0.2879144 0.3891711,0.6448641 0.7935671,0.9792083 0.098677,0.081585 0.2096068,0.012309 0.4877379,0.051467 0.088255,0.1249146 -0.048993,0.2751869 0.1647922,0.5016626 0.2367471,0.2507981 0.7911681,0.5067641 0.897178,0.5769481 0.1426466,0.09444 0.2721323,-0.02891 0.437626,-0.0044 0.080714,0.138483 -0.061141,0.297382 0.1762831,0.466045 0.3613512,0.2567 1.0130078,0.52605 1.3689265,0.570419 0.400955,0.04997 0.4967839,-0.251696 0.5026923,-0.762848 1.1197077,0.472729 2.686348,0.579052 3.9647299,-0.106839 1.27838,-0.6858918 1.149344,-5.9835745 -1.1843933,-8.1284606 z M 9.3282593,2.5871477 c 2.0500797,1.999277 2.2584847,6.1920488 1.1817927,7.5652083 -0.294829,0.376011 -2.9835754,0.89399 -3.86829,0.200995 C 6.3875032,10.154192 6.5874838,11.145712 6.2867479,11.116377 5.6562558,11.054875 5.2346351,10.859514 5.0097808,10.581339 4.8856505,10.427775 5.1582775,9.982777 5.0037743,9.8850226 4.8716123,9.8014027 4.4832435,10.183119 4.3557018,10.147473 3.8490191,10.005864 3.5478194,9.7239017 3.4837612,9.5787895 3.4173615,9.428373 3.7467682,9.0222603 3.5393078,8.8587351 3.3477948,8.7077798 3.0455055,9.1871416 2.7763713,9.0057196 2.4042531,8.7548768 2.2531221,8.5058873 2.1335679,8.2010761 2.0358005,7.9518113 2.8961995,7.5443824 2.6896296,7.3538986 1.6198254,6.3674021 1.4566095,4.010502 1.9198641,2.9808195 2.5166634,1.6543059 7.5614812,0.86415086 9.3282593,2.5871477 Z"
       id="path135" />
  </g>
</svg>
